…
if (rlang::is_installed("ordinalForest")) {

# Ordinal forest

fit_orf <- rand_forest(mode = "classification") %>%
  set_engine("ordinalForest") %>%
  set_args(nsets = 50, ntreefinal = 100, perffunction = "probability") %>%
  fit(Sat ~ Infl + Type + Cont, data = house_train)
predict(fit_orf, house_test, type = "prob")

}
}
#> Warning: The argument `ntreefinal` cannot be manually modified and was removed.
#> # A tibble: 40 × 3
#>    .pred_Low .pred_Medium .pred_High
#>        <dbl>        <dbl>      <dbl>
#>  1     0.120        0.347      0.533
#>  2     0.514        0.192      0.294
#>  3     0.426        0.328      0.246
#>  4     0.514        0.192      0.294
#>  5     0.227        0.274      0.499
#>  6     0.442        0.326      0.233
#>  7     0.150        0.411      0.439
#>  8     0.231        0.220      0.550
#>  9     0.442        0.326      0.233
#> 10     0.120        0.347      0.533
#> # ℹ 30 more rows
```
