…
if (rlang::is_installed("ordinalForest")) {

# Ordinal forest

fit_orf <- rand_forest(mode = "classification") %>%
  set_engine("ordinalForest") %>%
  set_args(nsets = 50, ntreefinal = 100, perffunction = "probability") %>%
  fit(Sat ~ Infl + Type + Cont, data = house_train)
predict(fit_orf, house_test, type = "prob")

}
}
#> Warning: The argument `ntreefinal` cannot be manually modified and was removed.
#> # A tibble: 40 × 3
#>    .pred_Low .pred_Medium .pred_High
#>        <dbl>        <dbl>      <dbl>
#>  1     0.123        0.343      0.534
#>  2     0.514        0.193      0.292
#>  3     0.422        0.328      0.250
#>  4     0.514        0.193      0.292
#>  5     0.232        0.276      0.492
#>  6     0.436        0.328      0.236
#>  7     0.155        0.412      0.434
#>  8     0.239        0.218      0.544
#>  9     0.436        0.328      0.236
#> 10     0.123        0.343      0.534
#> # ℹ 30 more rows
```
